cn(mg)/LAB4/FFT.VCD
$date
	Thu Mar 11 18:50:54 2021
$end
$version
	Icarus Verilog
$end
$timescale
	1s
$end
$scope module FFT_tb $end
$var wire 4 ! qb [3:0] $end
$var wire 4 " q [3:0] $end
$var reg 1 # clk $end
$var reg 4 $ d [3:0] $end
$var reg 1 % ld $end
$var reg 1 & rst $end
$scope module t0 $end
$var wire 1 # clk $end
$var wire 1 ' d $end
$var wire 1 % ld $end
$var wire 1 ( qb $end
$var wire 1 & rst $end
$var reg 1 ) q $end
$upscope $end
$scope module t1 $end
$var wire 1 * clk $end
$var wire 1 + d $end
$var wire 1 % ld $end
$var wire 1 , qb $end
$var wire 1 & rst $end
$var reg 1 - q $end
$upscope $end
$scope module t2 $end
$var wire 1 . clk $end
$var wire 1 / d $end
$var wire 1 % ld $end
$var wire 1 0 qb $end
$var wire 1 & rst $end
$var reg 1 1 q $end
$upscope $end
$scope module t3 $end
$var wire 1 2 clk $end
$var wire 1 3 d $end
$var wire 1 % ld $end
$var wire 1 4 qb $end
$var wire 1 & rst $end
$var reg 1 5 q $end
$upscope $end
$upscope $end
$enddefinitions $end
#0
$dumpvars
x5
x4
x3
x2
x1
x0
x/
x.
x-
x,
x+
x*
x)
x(
x'
0&
0%
bx $
0#
bx "
bx !
$end
#10
1(
0*
1,
0.
10
02
b1111 !
14
0)
0-
01
b0 "
05
1#
1&
#13
0&
#20
0#
#30
04
15
00
12
11
0,
1.
1-
b0 !
0(
1*
b1111 "
1)
1#
#40
0#
#50
b1 !
1(
0*
b1110 "
0)
1#
#60
0#
#70
1,
0.
0-
b10 !
0(
1*
b1101 "
1)
1#
#80
0#
#90
b11 !
1(
0*
b1100 "
0)
1#
#100
0#
#110
10
02
01
0,
1.
1-
b100 !
0(
1*
b1011 "
1)
1#
#120
0#
#130
b101 !
1(
0*
b1010 "
0)
1#
#140
0#
#150
1,
0.
0-
b110 !
0(
1*
b1001 "
1)
1#
#160
0#
#170
b111 !
1(
0*
b1000 "
0)
1#
#180
0#
#190
14
05
00
12
11
0,
1.
1-
b1000 !
0(
1*
b111 "
1)
1#
#200
0#
#210
b1001 !
1(
0*
b110 "
0)
1#
#220
0#
#230
1,
0.
0-
b1010 !
0(
1*
b101 "
1)
1#
#240
0#
#250
b1011 !
1(
0*
b100 "
0)
1#
#260
0#
#270
10
02
01
0,
1.
1-
b1100 !
0(
1*
b11 "
1)
1#
#280
0#
#290
b1101 !
1(
0*
b10 "
0)
1#
#293
1'
1+
0/
13
b1011 $
#298
0(
1*
b100 !
04
1)
b1011 "
15
1%
#300
0#
#303
0%
#310
b101 !
1(
0*
b1010 "
0)
1#
#320
0#
#330
1,
0.
0-
b110 !
0(
1*
b1001 "
1)
1#
#340
0#
#350
b111 !
1(
0*
b1000 "
0)
1#
#360
0#
#370
14
05
00
12
11
0,
1.
1-
b1000 !
0(
1*
b111 "
1)
1#
#380
0#
#390
b1001 !
1(
0*
b110 "
0)
1#
#400
0#
#410
1,
0.
0-
b1010 !
0(
1*
b101 "
1)
1#
#420
0#
#430
b1011 !
1(
0*
b100 "
0)
1#
#440
0#
#450
10
02
01
0,
1.
1-
b1100 !
0(
1*
b11 "
1)
1#
#460
0#
#470
b1101 !
1(
0*
b10 "
0)
1#
#480
0#
#490
1,
0.
0-
b1110 !
0(
1*
b1 "
1)
1#
#500
0#
#510
b1111 !
1(
0*
b0 "
0)
1#
#520
0#
#530
04
15
00
12
11
0,
1.
1-
b0 !
0(
1*
b1111 "
1)
1#
#540
0#
#550
b1 !
1(
0*
b1110 "
0)
1#
#560
0#
#570
1,
0.
0-
b10 !
0(
1*
b1101 "
1)
1#
#580
0#
#590
b11 !
1(
0*
b1100 "
0)
1#
#600
0#
#610
10
02
01
0,
1.
1-
b100 !
0(
1*
b1011 "
1)
1#
#620
0#
#630
b101 !
1(
0*
b1010 "
0)
1#
#640
0#
#650
1,
0.
0-
b110 !
0(
1*
b1001 "
1)
1#
#660
0#
#670
b111 !
1(
0*
b1000 "
0)
1#
#680
0#
#690
14
05
00
12
11
0,
1.
1-
b1000 !
0(
1*
b111 "
1)
1#
#700
0#
#710
b1001 !
1(
0*
b110 "
0)
1#
#720
0#
#730
1,
0.
0-
b1010 !
0(
1*
b101 "
1)
1#
#740
0#
#750
b1011 !
1(
0*
b100 "
0)
1#
#760
0#
#770
10
02
01
0,
1.
1-
b1100 !
0(
1*
b11 "
1)
1#
#780
0#
#790
b1101 !
1(
0*
b10 "
0)
1#
